The package is used to identify anomalous clinical time series • ctas
…
data("ctas_data", package = "ctas")

ctas_data
#> $data
#> # A tibble: 6,890 × 7
#>    subject_id timepoint_rank timepoint_1_name result parameter_id
#>    <chr>               <int> <chr[1d]>         <dbl> <chr>       
#>  1 1                       1 AB                 38.1 param1      
#>  2 1                       2 AC                 36.9 param1      
#>  3 1                       3 AD                 38.5 param1      
#>  4 1                       4 AE                 39.8 param1      
#>  5 1                       5 AF                 40.6 param1      
#>  6 1                       6 AG                 36.7 param1      
#>  7 1                       7 AH                 38.2 param1      
#>  8 1                       8 AI                 40.0 param1      
#>  9 1                       9 AJ                 37.0 param1      
#> 10 1                      10 AK                 35.1 param1      
#> # ℹ 6,880 more rows
#> # ℹ 2 more variables: timepoint_2_name <chr>, baseline <lgl>
#> 
#> $parameters
#> # A tibble: 2 × 11
#>   parameter_id parameter_name parameter_category_1 parameter_category_2
#>   <chr>        <chr>          <chr>                <chr>               
#> 1 param1       param1         category 1           category 2          
#> 2 param2       param2         category 1           category 2          
#> # ℹ 7 more variables: parameter_category_3 <chr>, time_point_count_min <lgl>,
#> #   subject_count_min <lgl>, max_share_missing <lgl>,
#> #   generate_change_from_baseline <lgl>,
#> #   timeseries_features_to_calculate <lgl>, use_only_custom_timeseries <lgl>
#> 
#> $subjects
#> # A tibble: 177 × 4
#>    subject_id site  country region
#>    <chr>      <chr> <chr>   <chr> 
#>  1 1          AAA   AA      A     
#>  2 2          AAA   AA      A     
#>  3 3          AAA   AA      A     
#>  4 4          AAB   AA      A     
#>  5 5          AAB   AA      A     
#>  6 6          AAB   AA      A     
#>  7 7          AAC   AA      A     
#>  8 8          AAC   AA      A     
#>  9 9          AAC   AA      A     
#> 10 10         AAC   AA      A     
#> # ℹ 167 more rows
…
#>  1 ts_1_autogen_or… param1       original 1;2;3;4;5;6;7;… AB_timepoint name 2;A…
#>  2 ts_2_autogen_or… param1       original 1;2;3;4;5;6;7;… AB_timepoint name 2;A…
#>  3 ts_3_autogen_or… param1       original 1;2;3;4;5;6;7;… AB_timepoint name 2;A…
#>  4 ts_4_autogen_or… param1       original 1;2;3;4;5;6;7;… AB_timepoint name 2;A…
#>  5 ts_5_autogen_or… param1       original 1;2;3;4;5;6;7;… AB_timepoint name 2;A…
#>  6 ts_6_autogen_or… param2       original 1;2;3;4;5;6;7;… AB_timepoint name 2;A…
#>  7 ts_7_autogen_or… param2       original 1;2;3;4;5;6;7;… AB_timepoint name 2;A…
#>  8 ts_8_autogen_or… param2       original 1;2;3;4;5;6;7;… AB_timepoint name 2;A…
#>  9 ts_9_autogen_or… param2       original 1;2;3;4;5;6;7;… AB_timepoint name 2;A…
#> 10 ts_10_autogen_o… param2       original 1;2;3;4;5;6;7;… AB_timepoint name 2;A…
#> # ℹ abbreviated name: ¹​timepoint_combo_readable
#> # ℹ 1 more variable: timepoint_count <dbl>
#> 
#> $timeseries_features
#> # A tibble: 7,902 × 7
#>    timeseries_id         subject_id feature   feature_value site  country region
#>    <chr>                 <chr>      <chr>             <dbl> <chr> <chr>   <chr> 
#>  1 ts_1_autogen_original 1          range            5.45   AAA   AA      A     
#>  2 ts_1_autogen_original 1          sd               1.40   AAA   AA      A     
#>  3 ts_1_autogen_original 1          unique_v…        1      AAA   AA      A     
#>  4 ts_1_autogen_original 1          autocorr         0.120  AAA   AA      A     
#>  5 ts_1_autogen_original 1          average         38.2    AAA   AA      A     
#>  6 ts_1_autogen_original 1          lof              1.06   AAA   AA      A     
#>  7 ts_1_autogen_original 4          range           14.6    AAB   AA      A     
#>  8 ts_1_autogen_original 4          sd               3.70   AAB   AA      A     
#>  9 ts_1_autogen_original 4          unique_v…        1      AAB   AA      A     
#> 10 ts_1_autogen_original 4          autocorr        -0.0317 AAB   AA      A     
#> # ℹ 7,892 more rows
#> 
#> $PCA_coordinates
#> # A tibble: 1,137 × 4
#>    timeseries_id         subject_id      pc1    pc2
#>    <chr>                 <chr>         <dbl>  <dbl>
#>  1 ts_1_autogen_original 1          -37.7      1.07
#>  2 ts_1_autogen_original 4           14.6      2.67
#>  3 ts_1_autogen_original 10          47.6     -2.96
#>  4 ts_1_autogen_original 12          35.0      1.42
#>  5 ts_1_autogen_original 14           0.0945 -34.7 
#>  6 ts_1_autogen_original 16           2.97    -9.54
#>  7 ts_1_autogen_original 17          -8.90     3.78
#>  8 ts_1_autogen_original 19         -29.5      2.09
#>  9 ts_1_autogen_original 22         -12.3      1.59
#> 10 ts_1_autogen_original 24           6.02    -5.75
#> # ℹ 1,127 more rows
#> 
#> $site_scores
#> # A tibble: 2,221 × 10
#>    timeseries_id         site  country region feature pvalue_kstest_logp
#>    <chr>                 <chr> <chr>   <chr>  <chr>                <dbl>
#>  1 ts_1_autogen_original AAA   AA      A      range               0.490 
#>  2 ts_1_autogen_original AAB   AA      A      range               0.0130
#>  3 ts_1_autogen_original AAC   AA      A      range               0.418 
#>  4 ts_1_autogen_original AAD   AA      A      range               1.24  
#>  5 ts_1_autogen_original AAE   AA      A      range               0.374 
#>  6 ts_1_autogen_original AAF   AA      A      range               0.0324
#>  7 ts_1_autogen_original AAG   AA      A      range               0.977 
#>  8 ts_1_autogen_original ABA   AB      A      range               1.17  
#>  9 ts_1_autogen_original BAA   BA      B      range               0.283 
#> 10 ts_1_autogen_original BAB   BA      B      range               1.77  
#> # ℹ 2,211 more rows
#> # ℹ 4 more variables: kstest_statistic <dbl>, fdr_corrected_pvalue_logp <dbl>,
#> #   ref_group <chr>, subject_count <int>
…
