…
data("tsoa_data", package = "tsoa")

tsoa_data
#> $data
#> # A tibble: 40,474 × 7
#>    subject_id timepoint_rank timepoint_1_name result parameter…¹ timep…² basel…³
#>    <chr>               <int> <chr[1d]>         <dbl> <chr>       <chr>   <lgl>  
#>  1 1                       1 AB                 6.73 param1      timepo… NA     
#>  2 1                       2 AC                 0    param1      timepo… NA     
#>  3 1                       3 AD                 4.06 param1      timepo… NA     
#>  4 1                       4 AE                16.3  param1      timepo… NA     
#>  5 1                       5 AF                27.2  param1      timepo… NA     
#>  6 1                       6 AG                NA    param1      timepo… NA     
#>  7 1                       7 AH                 6.66 param1      timepo… NA     
#>  8 1                       8 AI                21.6  param1      timepo… NA     
#>  9 1                       9 AJ                 2.85 param1      timepo… NA     
#> 10 1                      10 AK                 0    param1      timepo… NA     
#> # … with 40,464 more rows, and abbreviated variable names ¹​parameter_id,
#> #   ²​timepoint_2_name, ³​baseline
#> 
#> $parameters
#> # A tibble: 2 × 9
#>   parameter_id paramet…¹ param…² param…³ param…⁴ time_…⁵ subje…⁶ max_s…⁷ gener…⁸
#>   <chr>        <chr>     <chr>   <chr>   <chr>   <lgl>   <lgl>   <lgl>   <lgl>  
#> 1 param1       param1    catego… catego… catego… NA      NA      NA      NA     
#> 2 param2       param2    catego… catego… catego… NA      NA      NA      NA     
#> # … with abbreviated variable names ¹​parameter_name, ²​parameter_category_1,
#> #   ³​parameter_category_2, ⁴​parameter_category_3, ⁵​time_point_count_min,
#> #   ⁶​subject_count_min, ⁷​max_share_missing, ⁸​generate_change_from_baseline
#> 
#> $subjects
#> # A tibble: 202 × 3
#>    subject_id site  country
#>    <chr>      <chr> <chr>  
#>  1 1          mean  A      
#>  2 2          mean  A      
#>  3 3          mean  A      
#>  4 4          mean  A      
#>  5 5          mean  A      
#>  6 6          mean  A      
#>  7 7          mean  A      
#>  8 8          mean  A      
#>  9 9          mean  A      
#> 10 10         mean  A      
#> # … with 192 more rows
…
ls_tsoa
#> $timeseries
#> # A tibble: 2 × 6
#>   timeseries_id         parameter_id baseline timepoint_combo    timep…¹ timep…²
#>   <chr>                 <chr>        <chr>    <chr>              <chr>     <dbl>
#> 1 ts_1_autogen_original param1       original 1;2;3;4;5;6;7;8;9… AB_tim…     126
#> 2 ts_2_autogen_original param2       original 1;2;3;4;5;6;7;8;9… AB_tim…     126
#> # … with abbreviated variable names ¹​timepoint_combo_readable, ²​timepoint_count
#> 
#> $timeseries_features
#> # A tibble: 2,019 × 6
#>    timeseries_id         subject_id feature                featu…¹ site  country
#>    <chr>                 <chr>      <chr>                    <dbl> <chr> <chr>  
#>  1 ts_1_autogen_original 1          sd                      7.54   mean  A      
#>  2 ts_1_autogen_original 1          average                 9.41   mean  A      
#>  3 ts_1_autogen_original 1          autocorr                0.159  mean  A      
#>  4 ts_1_autogen_original 1          unique_value_count_re…  0.895  mean  A      
#>  5 ts_1_autogen_original 1          own_site_simil_score    0.999  mean  A      
#>  6 ts_1_autogen_original 2          sd                      4.90   mean  A      
#>  7 ts_1_autogen_original 2          average                12.5    mean  A      
#>  8 ts_1_autogen_original 2          autocorr                0.0876 mean  A      
#>  9 ts_1_autogen_original 2          unique_value_count_re…  1      mean  A      
#> 10 ts_1_autogen_original 2          own_site_simil_score    0.995  mean  A      
#> # … with 2,009 more rows, and abbreviated variable name ¹​feature_value
#> 
#> $PCA_coordinates
#> # A tibble: 404 × 4
#>    timeseries_id         subject_id   pc1   pc2
#>    <chr>                 <chr>      <dbl> <dbl>
#>  1 ts_1_autogen_original 1          -213. -15.6
#>  2 ts_1_autogen_original 2          -177. -13.4
#>  3 ts_1_autogen_original 3          -193. -36.7
#>  4 ts_1_autogen_original 4          -225. -13.7
#>  5 ts_1_autogen_original 5          -217. -13.6
#>  6 ts_1_autogen_original 6          -274. -10.0
#>  7 ts_1_autogen_original 7          -245. -18.3
#>  8 ts_1_autogen_original 8          -244. -15.8
#>  9 ts_1_autogen_original 9          -219. -14.5
#> 10 ts_1_autogen_original 10         -237. -17.8
#> # … with 394 more rows
#> 
#> $site_scores
#> # A tibble: 250 × 9
#>    timeseries_id   site  country feature pvalu…¹ kstes…² fdr_c…³ refer…⁴ subje…⁵
#>    <chr>           <chr> <chr>   <chr>     <dbl>   <dbl>   <dbl> <chr>     <int>
#>  1 ts_1_autogen_o… mean  A       sd       0.375    0.257 6.73e-2 all          11
#>  2 ts_1_autogen_o… sd    D       sd       7.50     0.886 6.01e+0 all           9
#>  3 ts_1_autogen_o… cons… A       sd       0.502    0.295 9.05e-2 all          10
#>  4 ts_1_autogen_o… cons… B       sd       7.38     0.985 5.93e+0 all           5
#>  5 ts_1_autogen_o… roun… E       sd       0.189    0.224 3.13e-2 all          10
#>  6 ts_1_autogen_o… zick… C       sd       2.38     0.631 1.36e+0 all           7
#>  7 ts_1_autogen_o… zick… B       sd       4.97     0.707 3.75e+0 all          11
#>  8 ts_1_autogen_o… 8     C       sd       0.0493   0.181 5.49e-4 all           9
#>  9 ts_1_autogen_o… 9     C       sd       0.247    0.240 3.50e-2 all          10
#> 10 ts_1_autogen_o… 10    A       sd       0.874    0.397 2.83e-1 all           8
#> # … with 240 more rows, and abbreviated variable names ¹​pvalue_kstest_logp,
#> #   ²​kstest_statistic, ³​fdr_corrected_pvalue_logp, ⁴​reference_group,
#> #   ⁵​subject_count
```
…
